^G:\VIRTUALASSEMBLY\C++\VIRTUALMACHINE\VAM\RELEASE\MAIN.OBJ|G:\VIRTUALASSEMBLY\C++\VIRTUALMACHINE\VAM\RELEASE\PARSING.OBJ
G:\VIRTUALASSEMBLY\C++\VIRTUALMACHINE\RELEASE\VAM.EXE
G:\VIRTUALASSEMBLY\C++\VIRTUALMACHINE\RELEASE\VAM.IPDB
G:\VIRTUALASSEMBLY\C++\VIRTUALMACHINE\RELEASE\VAM.IOBJ
G:\VIRTUALASSEMBLY\C++\VIRTUALMACHINE\RELEASE\VAM.PDB
