^G:\VIRTUALASSEMBLY\C++\VIRTUALMACHINE\VAM\RELEASE\MAIN.OBJ|G:\VIRTUALASSEMBLY\C++\VIRTUALMACHINE\VAM\RELEASE\PARSING.OBJ
C:\WINDOWS\GLOBALIZATION\SORTING\SORTDEFAULT.NLS
G:\PROGRAM FILES\MICROSOFT VISUAL STUDIO 14.0\VC\LIB\ALLEGRO-5.0.10-MONOLITH-MD.LIB
C:\PROGRAM FILES\WINDOWS KITS\8.1\LIB\WINV6.3\UM\X86\KERNEL32.LIB
C:\PROGRAM FILES\WINDOWS KITS\8.1\LIB\WINV6.3\UM\X86\USER32.LIB
C:\PROGRAM FILES\WINDOWS KITS\8.1\LIB\WINV6.3\UM\X86\GDI32.LIB
C:\PROGRAM FILES\WINDOWS KITS\8.1\LIB\WINV6.3\UM\X86\WINSPOOL.LIB
C:\PROGRAM FILES\WINDOWS KITS\8.1\LIB\WINV6.3\UM\X86\COMDLG32.LIB
C:\PROGRAM FILES\WINDOWS KITS\8.1\LIB\WINV6.3\UM\X86\ADVAPI32.LIB
C:\PROGRAM FILES\WINDOWS KITS\8.1\LIB\WINV6.3\UM\X86\SHELL32.LIB
C:\PROGRAM FILES\WINDOWS KITS\8.1\LIB\WINV6.3\UM\X86\OLE32.LIB
C:\PROGRAM FILES\WINDOWS KITS\8.1\LIB\WINV6.3\UM\X86\OLEAUT32.LIB
C:\PROGRAM FILES\WINDOWS KITS\8.1\LIB\WINV6.3\UM\X86\UUID.LIB
C:\PROGRAM FILES\WINDOWS KITS\8.1\LIB\WINV6.3\UM\X86\ODBC32.LIB
C:\PROGRAM FILES\WINDOWS KITS\8.1\LIB\WINV6.3\UM\X86\ODBCCP32.LIB
G:\VIRTUALASSEMBLY\C++\VIRTUALMACHINE\VAM\RELEASE\MAIN.OBJ
G:\VIRTUALASSEMBLY\C++\VIRTUALMACHINE\VAM\RELEASE\PARSING.OBJ
G:\PROGRAM FILES\MICROSOFT VISUAL STUDIO 14.0\VC\BIN\C2.DLL
G:\PROGRAM FILES\MICROSOFT VISUAL STUDIO 14.0\VC\LIB\MSVCPRT.LIB
G:\PROGRAM FILES\MICROSOFT VISUAL STUDIO 14.0\VC\LIB\MSVCRT.LIB
G:\PROGRAM FILES\MICROSOFT VISUAL STUDIO 14.0\VC\LIB\OLDNAMES.LIB
G:\PROGRAM FILES\MICROSOFT VISUAL STUDIO 14.0\VC\LIB\VCRUNTIME.LIB
C:\PROGRAM FILES\WINDOWS KITS\10\LIB\10.0.10240.0\UCRT\X86\UCRT.LIB
G:\PROGRAM FILES\MICROSOFT VISUAL STUDIO 14.0\VC\BIN\1033\LINKUI.DLL
G:\VIRTUALASSEMBLY\C++\VIRTUALMACHINE\RELEASE\VAM.IPDB
G:\VIRTUALASSEMBLY\C++\VIRTUALMACHINE\RELEASE\VAM.IOBJ
C:\PROGRAM FILES\WINDOWS KITS\8.1\BIN\X86\RC.EXE
G:\PROGRAM FILES\MICROSOFT VISUAL STUDIO 14.0\VC\BIN\CVTRES.EXE
C:\WINDOWS\SYSTEM32\TZRES.DLL
