^G:\VIRTUALASSEMBLY\C++\VIRTUALMACHINE\VTM\PARSING.CPP
G:\VIRTUALASSEMBLY\C++\VIRTUALMACHINE\VTM\PARSING.H
G:\PROGRAM FILES\MICROSOFT VISUAL STUDIO 14.0\VC\INCLUDE\STRING
G:\PROGRAM FILES\MICROSOFT VISUAL STUDIO 14.0\VC\INCLUDE\ISTREAM
G:\PROGRAM FILES\MICROSOFT VISUAL STUDIO 14.0\VC\INCLUDE\OSTREAM
G:\PROGRAM FILES\MICROSOFT VISUAL STUDIO 14.0\VC\INCLUDE\IOS
G:\PROGRAM FILES\MICROSOFT VISUAL STUDIO 14.0\VC\INCLUDE\XLOCNUM
G:\PROGRAM FILES\MICROSOFT VISUAL STUDIO 14.0\VC\INCLUDE\CLIMITS
G:\PROGRAM FILES\MICROSOFT VISUAL STUDIO 14.0\VC\INCLUDE\YVALS.H
G:\PROGRAM FILES\MICROSOFT VISUAL STUDIO 14.0\VC\INCLUDE\XKEYCHECK.H
G:\PROGRAM FILES\MICROSOFT VISUAL STUDIO 14.0\VC\INCLUDE\CRTDEFS.H
G:\PROGRAM FILES\MICROSOFT VISUAL STUDIO 14.0\VC\INCLUDE\VCRUNTIME.H
G:\PROGRAM FILES\MICROSOFT VISUAL STUDIO 14.0\VC\INCLUDE\SAL.H
G:\PROGRAM FILES\MICROSOFT VISUAL STUDIO 14.0\VC\INCLUDE\CONCURRENCYSAL.H
G:\PROGRAM FILES\MICROSOFT VISUAL STUDIO 14.0\VC\INCLUDE\VADEFS.H
C:\PROGRAM FILES\WINDOWS KITS\10\INCLUDE\10.0.10240.0\UCRT\CORECRT.H
G:\PROGRAM FILES\MICROSOFT VISUAL STUDIO 14.0\VC\INCLUDE\USE_ANSI.H
G:\PROGRAM FILES\MICROSOFT VISUAL STUDIO 14.0\VC\INCLUDE\LIMITS.H
G:\PROGRAM FILES\MICROSOFT VISUAL STUDIO 14.0\VC\INCLUDE\CMATH
C:\PROGRAM FILES\WINDOWS KITS\10\INCLUDE\10.0.10240.0\UCRT\MATH.H
G:\PROGRAM FILES\MICROSOFT VISUAL STUDIO 14.0\VC\INCLUDE\XTGMATH.H
G:\PROGRAM FILES\MICROSOFT VISUAL STUDIO 14.0\VC\INCLUDE\XTR1COMMON
G:\PROGRAM FILES\MICROSOFT VISUAL STUDIO 14.0\VC\INCLUDE\CSTDLIB
C:\PROGRAM FILES\WINDOWS KITS\10\INCLUDE\10.0.10240.0\UCRT\STDLIB.H
C:\PROGRAM FILES\WINDOWS KITS\10\INCLUDE\10.0.10240.0\UCRT\CORECRT_MALLOC.H
C:\PROGRAM FILES\WINDOWS KITS\10\INCLUDE\10.0.10240.0\UCRT\CORECRT_SEARCH.H
C:\PROGRAM FILES\WINDOWS KITS\10\INCLUDE\10.0.10240.0\UCRT\STDDEF.H
C:\PROGRAM FILES\WINDOWS KITS\10\INCLUDE\10.0.10240.0\UCRT\CORECRT_WSTDLIB.H
G:\PROGRAM FILES\MICROSOFT VISUAL STUDIO 14.0\VC\INCLUDE\CSTDIO
C:\PROGRAM FILES\WINDOWS KITS\10\INCLUDE\10.0.10240.0\UCRT\STDIO.H
C:\PROGRAM FILES\WINDOWS KITS\10\INCLUDE\10.0.10240.0\UCRT\CORECRT_WSTDIO.H
C:\PROGRAM FILES\WINDOWS KITS\10\INCLUDE\10.0.10240.0\UCRT\CORECRT_STDIO_CONFIG.H
G:\PROGRAM FILES\MICROSOFT VISUAL STUDIO 14.0\VC\INCLUDE\STREAMBUF
G:\PROGRAM FILES\MICROSOFT VISUAL STUDIO 14.0\VC\INCLUDE\XIOSBASE
G:\PROGRAM FILES\MICROSOFT VISUAL STUDIO 14.0\VC\INCLUDE\XLOCALE
G:\PROGRAM FILES\MICROSOFT VISUAL STUDIO 14.0\VC\INCLUDE\CSTRING
C:\PROGRAM FILES\WINDOWS KITS\10\INCLUDE\10.0.10240.0\UCRT\STRING.H
C:\PROGRAM FILES\WINDOWS KITS\10\INCLUDE\10.0.10240.0\UCRT\CORECRT_MEMORY.H
C:\PROGRAM FILES\WINDOWS KITS\10\INCLUDE\10.0.10240.0\UCRT\CORECRT_MEMCPY_S.H
C:\PROGRAM FILES\WINDOWS KITS\10\INCLUDE\10.0.10240.0\UCRT\ERRNO.H
G:\PROGRAM FILES\MICROSOFT VISUAL STUDIO 14.0\VC\INCLUDE\VCRUNTIME_STRING.H
C:\PROGRAM FILES\WINDOWS KITS\10\INCLUDE\10.0.10240.0\UCRT\CORECRT_WSTRING.H
G:\PROGRAM FILES\MICROSOFT VISUAL STUDIO 14.0\VC\INCLUDE\STDEXCEPT
G:\PROGRAM FILES\MICROSOFT VISUAL STUDIO 14.0\VC\INCLUDE\EXCEPTION
G:\PROGRAM FILES\MICROSOFT VISUAL STUDIO 14.0\VC\INCLUDE\TYPE_TRAITS
G:\PROGRAM FILES\MICROSOFT VISUAL STUDIO 14.0\VC\INCLUDE\XSTDDEF
G:\PROGRAM FILES\MICROSOFT VISUAL STUDIO 14.0\VC\INCLUDE\CSTDDEF
G:\PROGRAM FILES\MICROSOFT VISUAL STUDIO 14.0\VC\INCLUDE\INITIALIZER_LIST
C:\PROGRAM FILES\WINDOWS KITS\10\INCLUDE\10.0.10240.0\UCRT\MALLOC.H
G:\PROGRAM FILES\MICROSOFT VISUAL STUDIO 14.0\VC\INCLUDE\VCRUNTIME_EXCEPTION.H
G:\PROGRAM FILES\MICROSOFT VISUAL STUDIO 14.0\VC\INCLUDE\EH.H
C:\PROGRAM FILES\WINDOWS KITS\10\INCLUDE\10.0.10240.0\UCRT\CORECRT_TERMINATE.H
G:\PROGRAM FILES\MICROSOFT VISUAL STUDIO 14.0\VC\INCLUDE\XSTRING
G:\PROGRAM FILES\MICROSOFT VISUAL STUDIO 14.0\VC\INCLUDE\XMEMORY0
G:\PROGRAM FILES\MICROSOFT VISUAL STUDIO 14.0\VC\INCLUDE\CSTDINT
G:\PROGRAM FILES\MICROSOFT VISUAL STUDIO 14.0\VC\INCLUDE\STDINT.H
G:\PROGRAM FILES\MICROSOFT VISUAL STUDIO 14.0\VC\INCLUDE\LIMITS
G:\PROGRAM FILES\MICROSOFT VISUAL STUDIO 14.0\VC\INCLUDE\YMATH.H
G:\PROGRAM FILES\MICROSOFT VISUAL STUDIO 14.0\VC\INCLUDE\CFLOAT
C:\PROGRAM FILES\WINDOWS KITS\10\INCLUDE\10.0.10240.0\UCRT\FLOAT.H
G:\PROGRAM FILES\MICROSOFT VISUAL STUDIO 14.0\VC\INCLUDE\CWCHAR
C:\PROGRAM FILES\WINDOWS KITS\10\INCLUDE\10.0.10240.0\UCRT\WCHAR.H
C:\PROGRAM FILES\WINDOWS KITS\10\INCLUDE\10.0.10240.0\UCRT\CORECRT_WCONIO.H
C:\PROGRAM FILES\WINDOWS KITS\10\INCLUDE\10.0.10240.0\UCRT\CORECRT_WCTYPE.H
C:\PROGRAM FILES\WINDOWS KITS\10\INCLUDE\10.0.10240.0\UCRT\CORECRT_WDIRECT.H
C:\PROGRAM FILES\WINDOWS KITS\10\INCLUDE\10.0.10240.0\UCRT\CORECRT_WIO.H
C:\PROGRAM FILES\WINDOWS KITS\10\INCLUDE\10.0.10240.0\UCRT\CORECRT_SHARE.H
C:\PROGRAM FILES\WINDOWS KITS\10\INCLUDE\10.0.10240.0\UCRT\CORECRT_WPROCESS.H
C:\PROGRAM FILES\WINDOWS KITS\10\INCLUDE\10.0.10240.0\UCRT\CORECRT_WTIME.H
C:\PROGRAM FILES\WINDOWS KITS\10\INCLUDE\10.0.10240.0\UCRT\SYS\STAT.H
C:\PROGRAM FILES\WINDOWS KITS\10\INCLUDE\10.0.10240.0\UCRT\SYS\TYPES.H
G:\PROGRAM FILES\MICROSOFT VISUAL STUDIO 14.0\VC\INCLUDE\NEW
G:\PROGRAM FILES\MICROSOFT VISUAL STUDIO 14.0\VC\INCLUDE\VCRUNTIME_NEW.H
G:\PROGRAM FILES\MICROSOFT VISUAL STUDIO 14.0\VC\INCLUDE\XUTILITY
G:\PROGRAM FILES\MICROSOFT VISUAL STUDIO 14.0\VC\INCLUDE\UTILITY
G:\PROGRAM FILES\MICROSOFT VISUAL STUDIO 14.0\VC\INCLUDE\IOSFWD
C:\PROGRAM FILES\WINDOWS KITS\10\INCLUDE\10.0.10240.0\UCRT\CRTDBG.H
G:\PROGRAM FILES\MICROSOFT VISUAL STUDIO 14.0\VC\INCLUDE\VCRUNTIME_NEW_DEBUG.H
G:\PROGRAM FILES\MICROSOFT VISUAL STUDIO 14.0\VC\INCLUDE\XATOMIC0.H
G:\PROGRAM FILES\MICROSOFT VISUAL STUDIO 14.0\VC\INCLUDE\INTRIN.H
G:\PROGRAM FILES\MICROSOFT VISUAL STUDIO 14.0\VC\INCLUDE\SETJMP.H
G:\PROGRAM FILES\MICROSOFT VISUAL STUDIO 14.0\VC\INCLUDE\IMMINTRIN.H
G:\PROGRAM FILES\MICROSOFT VISUAL STUDIO 14.0\VC\INCLUDE\WMMINTRIN.H
G:\PROGRAM FILES\MICROSOFT VISUAL STUDIO 14.0\VC\INCLUDE\NMMINTRIN.H
G:\PROGRAM FILES\MICROSOFT VISUAL STUDIO 14.0\VC\INCLUDE\SMMINTRIN.H
G:\PROGRAM FILES\MICROSOFT VISUAL STUDIO 14.0\VC\INCLUDE\TMMINTRIN.H
G:\PROGRAM FILES\MICROSOFT VISUAL STUDIO 14.0\VC\INCLUDE\PMMINTRIN.H
G:\PROGRAM FILES\MICROSOFT VISUAL STUDIO 14.0\VC\INCLUDE\EMMINTRIN.H
G:\PROGRAM FILES\MICROSOFT VISUAL STUDIO 14.0\VC\INCLUDE\XMMINTRIN.H
G:\PROGRAM FILES\MICROSOFT VISUAL STUDIO 14.0\VC\INCLUDE\MMINTRIN.H
G:\PROGRAM FILES\MICROSOFT VISUAL STUDIO 14.0\VC\INCLUDE\AMMINTRIN.H
G:\PROGRAM FILES\MICROSOFT VISUAL STUDIO 14.0\VC\INCLUDE\MM3DNOW.H
G:\PROGRAM FILES\MICROSOFT VISUAL STUDIO 14.0\VC\INCLUDE\TYPEINFO
G:\PROGRAM FILES\MICROSOFT VISUAL STUDIO 14.0\VC\INCLUDE\VCRUNTIME_TYPEINFO.H
G:\PROGRAM FILES\MICROSOFT VISUAL STUDIO 14.0\VC\INCLUDE\XLOCINFO
G:\PROGRAM FILES\MICROSOFT VISUAL STUDIO 14.0\VC\INCLUDE\XLOCINFO.H
C:\PROGRAM FILES\WINDOWS KITS\10\INCLUDE\10.0.10240.0\UCRT\CTYPE.H
C:\PROGRAM FILES\WINDOWS KITS\10\INCLUDE\10.0.10240.0\UCRT\LOCALE.H
G:\PROGRAM FILES\MICROSOFT VISUAL STUDIO 14.0\VC\INCLUDE\XFACET
G:\PROGRAM FILES\MICROSOFT VISUAL STUDIO 14.0\VC\INCLUDE\SYSTEM_ERROR
G:\PROGRAM FILES\MICROSOFT VISUAL STUDIO 14.0\VC\INCLUDE\CERRNO
C:\PROGRAM FILES\WINDOWS KITS\10\INCLUDE\10.0.10240.0\UCRT\SHARE.H
G:\PROGRAM FILES\MICROSOFT VISUAL STUDIO 14.0\VC\INCLUDE\VECTOR
G:\PROGRAM FILES\MICROSOFT VISUAL STUDIO 14.0\VC\INCLUDE\XMEMORY
G:\PROGRAM FILES\MICROSOFT VISUAL STUDIO 14.0\VC\INCLUDE\IOSTREAM
^G:\VIRTUALASSEMBLY\C++\VIRTUALMACHINE\VTM\MAIN.CPP
C:\WINDOWS\GLOBALIZATION\SORTING\SORTDEFAULT.NLS
G:\PROGRAM FILES\MICROSOFT VISUAL STUDIO 14.0\VC\BIN\1033\CLUI.DLL
C:\WINDOWS\SYSTEM32\TZRES.DLL
G:\PROGRAM FILES\MICROSOFT VISUAL STUDIO 14.0\VC\INCLUDE\IOSTREAM
G:\PROGRAM FILES\MICROSOFT VISUAL STUDIO 14.0\VC\INCLUDE\ISTREAM
G:\PROGRAM FILES\MICROSOFT VISUAL STUDIO 14.0\VC\INCLUDE\OSTREAM
G:\PROGRAM FILES\MICROSOFT VISUAL STUDIO 14.0\VC\INCLUDE\IOS
G:\PROGRAM FILES\MICROSOFT VISUAL STUDIO 14.0\VC\INCLUDE\XLOCNUM
G:\PROGRAM FILES\MICROSOFT VISUAL STUDIO 14.0\VC\INCLUDE\CLIMITS
G:\PROGRAM FILES\MICROSOFT VISUAL STUDIO 14.0\VC\INCLUDE\YVALS.H
G:\PROGRAM FILES\MICROSOFT VISUAL STUDIO 14.0\VC\INCLUDE\XKEYCHECK.H
G:\PROGRAM FILES\MICROSOFT VISUAL STUDIO 14.0\VC\INCLUDE\CRTDEFS.H
G:\PROGRAM FILES\MICROSOFT VISUAL STUDIO 14.0\VC\INCLUDE\VCRUNTIME.H
G:\PROGRAM FILES\MICROSOFT VISUAL STUDIO 14.0\VC\INCLUDE\SAL.H
G:\PROGRAM FILES\MICROSOFT VISUAL STUDIO 14.0\VC\INCLUDE\CONCURRENCYSAL.H
G:\PROGRAM FILES\MICROSOFT VISUAL STUDIO 14.0\VC\INCLUDE\VADEFS.H
C:\PROGRAM FILES\WINDOWS KITS\10\INCLUDE\10.0.10240.0\UCRT\CORECRT.H
G:\PROGRAM FILES\MICROSOFT VISUAL STUDIO 14.0\VC\INCLUDE\USE_ANSI.H
G:\PROGRAM FILES\MICROSOFT VISUAL STUDIO 14.0\VC\INCLUDE\LIMITS.H
G:\PROGRAM FILES\MICROSOFT VISUAL STUDIO 14.0\VC\INCLUDE\CMATH
C:\PROGRAM FILES\WINDOWS KITS\10\INCLUDE\10.0.10240.0\UCRT\MATH.H
G:\PROGRAM FILES\MICROSOFT VISUAL STUDIO 14.0\VC\INCLUDE\XTGMATH.H
G:\PROGRAM FILES\MICROSOFT VISUAL STUDIO 14.0\VC\INCLUDE\XTR1COMMON
G:\PROGRAM FILES\MICROSOFT VISUAL STUDIO 14.0\VC\INCLUDE\CSTDLIB
C:\PROGRAM FILES\WINDOWS KITS\10\INCLUDE\10.0.10240.0\UCRT\STDLIB.H
C:\PROGRAM FILES\WINDOWS KITS\10\INCLUDE\10.0.10240.0\UCRT\CORECRT_MALLOC.H
C:\PROGRAM FILES\WINDOWS KITS\10\INCLUDE\10.0.10240.0\UCRT\CORECRT_SEARCH.H
C:\PROGRAM FILES\WINDOWS KITS\10\INCLUDE\10.0.10240.0\UCRT\STDDEF.H
C:\PROGRAM FILES\WINDOWS KITS\10\INCLUDE\10.0.10240.0\UCRT\CORECRT_WSTDLIB.H
G:\PROGRAM FILES\MICROSOFT VISUAL STUDIO 14.0\VC\INCLUDE\CSTDIO
C:\PROGRAM FILES\WINDOWS KITS\10\INCLUDE\10.0.10240.0\UCRT\STDIO.H
C:\PROGRAM FILES\WINDOWS KITS\10\INCLUDE\10.0.10240.0\UCRT\CORECRT_WSTDIO.H
C:\PROGRAM FILES\WINDOWS KITS\10\INCLUDE\10.0.10240.0\UCRT\CORECRT_STDIO_CONFIG.H
G:\PROGRAM FILES\MICROSOFT VISUAL STUDIO 14.0\VC\INCLUDE\STREAMBUF
G:\PROGRAM FILES\MICROSOFT VISUAL STUDIO 14.0\VC\INCLUDE\XIOSBASE
G:\PROGRAM FILES\MICROSOFT VISUAL STUDIO 14.0\VC\INCLUDE\XLOCALE
G:\PROGRAM FILES\MICROSOFT VISUAL STUDIO 14.0\VC\INCLUDE\CSTRING
C:\PROGRAM FILES\WINDOWS KITS\10\INCLUDE\10.0.10240.0\UCRT\STRING.H
C:\PROGRAM FILES\WINDOWS KITS\10\INCLUDE\10.0.10240.0\UCRT\CORECRT_MEMORY.H
C:\PROGRAM FILES\WINDOWS KITS\10\INCLUDE\10.0.10240.0\UCRT\CORECRT_MEMCPY_S.H
C:\PROGRAM FILES\WINDOWS KITS\10\INCLUDE\10.0.10240.0\UCRT\ERRNO.H
G:\PROGRAM FILES\MICROSOFT VISUAL STUDIO 14.0\VC\INCLUDE\VCRUNTIME_STRING.H
C:\PROGRAM FILES\WINDOWS KITS\10\INCLUDE\10.0.10240.0\UCRT\CORECRT_WSTRING.H
G:\PROGRAM FILES\MICROSOFT VISUAL STUDIO 14.0\VC\INCLUDE\STDEXCEPT
G:\PROGRAM FILES\MICROSOFT VISUAL STUDIO 14.0\VC\INCLUDE\EXCEPTION
G:\PROGRAM FILES\MICROSOFT VISUAL STUDIO 14.0\VC\INCLUDE\TYPE_TRAITS
G:\PROGRAM FILES\MICROSOFT VISUAL STUDIO 14.0\VC\INCLUDE\XSTDDEF
G:\PROGRAM FILES\MICROSOFT VISUAL STUDIO 14.0\VC\INCLUDE\CSTDDEF
G:\PROGRAM FILES\MICROSOFT VISUAL STUDIO 14.0\VC\INCLUDE\INITIALIZER_LIST
C:\PROGRAM FILES\WINDOWS KITS\10\INCLUDE\10.0.10240.0\UCRT\MALLOC.H
G:\PROGRAM FILES\MICROSOFT VISUAL STUDIO 14.0\VC\INCLUDE\VCRUNTIME_EXCEPTION.H
G:\PROGRAM FILES\MICROSOFT VISUAL STUDIO 14.0\VC\INCLUDE\EH.H
C:\PROGRAM FILES\WINDOWS KITS\10\INCLUDE\10.0.10240.0\UCRT\CORECRT_TERMINATE.H
G:\PROGRAM FILES\MICROSOFT VISUAL STUDIO 14.0\VC\INCLUDE\XSTRING
G:\PROGRAM FILES\MICROSOFT VISUAL STUDIO 14.0\VC\INCLUDE\XMEMORY0
G:\PROGRAM FILES\MICROSOFT VISUAL STUDIO 14.0\VC\INCLUDE\CSTDINT
G:\PROGRAM FILES\MICROSOFT VISUAL STUDIO 14.0\VC\INCLUDE\STDINT.H
G:\PROGRAM FILES\MICROSOFT VISUAL STUDIO 14.0\VC\INCLUDE\LIMITS
G:\PROGRAM FILES\MICROSOFT VISUAL STUDIO 14.0\VC\INCLUDE\YMATH.H
G:\PROGRAM FILES\MICROSOFT VISUAL STUDIO 14.0\VC\INCLUDE\CFLOAT
C:\PROGRAM FILES\WINDOWS KITS\10\INCLUDE\10.0.10240.0\UCRT\FLOAT.H
G:\PROGRAM FILES\MICROSOFT VISUAL STUDIO 14.0\VC\INCLUDE\CWCHAR
C:\PROGRAM FILES\WINDOWS KITS\10\INCLUDE\10.0.10240.0\UCRT\WCHAR.H
C:\PROGRAM FILES\WINDOWS KITS\10\INCLUDE\10.0.10240.0\UCRT\CORECRT_WCONIO.H
C:\PROGRAM FILES\WINDOWS KITS\10\INCLUDE\10.0.10240.0\UCRT\CORECRT_WCTYPE.H
C:\PROGRAM FILES\WINDOWS KITS\10\INCLUDE\10.0.10240.0\UCRT\CORECRT_WDIRECT.H
C:\PROGRAM FILES\WINDOWS KITS\10\INCLUDE\10.0.10240.0\UCRT\CORECRT_WIO.H
C:\PROGRAM FILES\WINDOWS KITS\10\INCLUDE\10.0.10240.0\UCRT\CORECRT_SHARE.H
C:\PROGRAM FILES\WINDOWS KITS\10\INCLUDE\10.0.10240.0\UCRT\CORECRT_WPROCESS.H
C:\PROGRAM FILES\WINDOWS KITS\10\INCLUDE\10.0.10240.0\UCRT\CORECRT_WTIME.H
C:\PROGRAM FILES\WINDOWS KITS\10\INCLUDE\10.0.10240.0\UCRT\SYS\STAT.H
C:\PROGRAM FILES\WINDOWS KITS\10\INCLUDE\10.0.10240.0\UCRT\SYS\TYPES.H
G:\PROGRAM FILES\MICROSOFT VISUAL STUDIO 14.0\VC\INCLUDE\NEW
G:\PROGRAM FILES\MICROSOFT VISUAL STUDIO 14.0\VC\INCLUDE\VCRUNTIME_NEW.H
G:\PROGRAM FILES\MICROSOFT VISUAL STUDIO 14.0\VC\INCLUDE\XUTILITY
G:\PROGRAM FILES\MICROSOFT VISUAL STUDIO 14.0\VC\INCLUDE\UTILITY
G:\PROGRAM FILES\MICROSOFT VISUAL STUDIO 14.0\VC\INCLUDE\IOSFWD
C:\PROGRAM FILES\WINDOWS KITS\10\INCLUDE\10.0.10240.0\UCRT\CRTDBG.H
G:\PROGRAM FILES\MICROSOFT VISUAL STUDIO 14.0\VC\INCLUDE\VCRUNTIME_NEW_DEBUG.H
G:\PROGRAM FILES\MICROSOFT VISUAL STUDIO 14.0\VC\INCLUDE\XATOMIC0.H
G:\PROGRAM FILES\MICROSOFT VISUAL STUDIO 14.0\VC\INCLUDE\INTRIN.H
G:\PROGRAM FILES\MICROSOFT VISUAL STUDIO 14.0\VC\INCLUDE\SETJMP.H
G:\PROGRAM FILES\MICROSOFT VISUAL STUDIO 14.0\VC\INCLUDE\IMMINTRIN.H
G:\PROGRAM FILES\MICROSOFT VISUAL STUDIO 14.0\VC\INCLUDE\WMMINTRIN.H
G:\PROGRAM FILES\MICROSOFT VISUAL STUDIO 14.0\VC\INCLUDE\NMMINTRIN.H
G:\PROGRAM FILES\MICROSOFT VISUAL STUDIO 14.0\VC\INCLUDE\SMMINTRIN.H
G:\PROGRAM FILES\MICROSOFT VISUAL STUDIO 14.0\VC\INCLUDE\TMMINTRIN.H
G:\PROGRAM FILES\MICROSOFT VISUAL STUDIO 14.0\VC\INCLUDE\PMMINTRIN.H
G:\PROGRAM FILES\MICROSOFT VISUAL STUDIO 14.0\VC\INCLUDE\EMMINTRIN.H
G:\PROGRAM FILES\MICROSOFT VISUAL STUDIO 14.0\VC\INCLUDE\XMMINTRIN.H
G:\PROGRAM FILES\MICROSOFT VISUAL STUDIO 14.0\VC\INCLUDE\MMINTRIN.H
G:\PROGRAM FILES\MICROSOFT VISUAL STUDIO 14.0\VC\INCLUDE\AMMINTRIN.H
G:\PROGRAM FILES\MICROSOFT VISUAL STUDIO 14.0\VC\INCLUDE\MM3DNOW.H
G:\PROGRAM FILES\MICROSOFT VISUAL STUDIO 14.0\VC\INCLUDE\TYPEINFO
G:\PROGRAM FILES\MICROSOFT VISUAL STUDIO 14.0\VC\INCLUDE\VCRUNTIME_TYPEINFO.H
G:\PROGRAM FILES\MICROSOFT VISUAL STUDIO 14.0\VC\INCLUDE\XLOCINFO
G:\PROGRAM FILES\MICROSOFT VISUAL STUDIO 14.0\VC\INCLUDE\XLOCINFO.H
C:\PROGRAM FILES\WINDOWS KITS\10\INCLUDE\10.0.10240.0\UCRT\CTYPE.H
C:\PROGRAM FILES\WINDOWS KITS\10\INCLUDE\10.0.10240.0\UCRT\LOCALE.H
G:\PROGRAM FILES\MICROSOFT VISUAL STUDIO 14.0\VC\INCLUDE\XFACET
G:\PROGRAM FILES\MICROSOFT VISUAL STUDIO 14.0\VC\INCLUDE\SYSTEM_ERROR
G:\PROGRAM FILES\MICROSOFT VISUAL STUDIO 14.0\VC\INCLUDE\CERRNO
C:\PROGRAM FILES\WINDOWS KITS\10\INCLUDE\10.0.10240.0\UCRT\SHARE.H
G:\PROGRAM FILES\MICROSOFT VISUAL STUDIO 14.0\VC\INCLUDE\FSTREAM
G:\PROGRAM FILES\MICROSOFT VISUAL STUDIO 14.0\VC\INCLUDE\STRING
G:\PROGRAM FILES\MICROSOFT VISUAL STUDIO 14.0\VC\INCLUDE\VECTOR
G:\PROGRAM FILES\MICROSOFT VISUAL STUDIO 14.0\VC\INCLUDE\XMEMORY
G:\PROGRAM FILES\MICROSOFT VISUAL STUDIO 14.0\VC\INCLUDE\UNORDERED_MAP
G:\PROGRAM FILES\MICROSOFT VISUAL STUDIO 14.0\VC\INCLUDE\XHASH
G:\PROGRAM FILES\MICROSOFT VISUAL STUDIO 14.0\VC\INCLUDE\LIST
G:\PROGRAM FILES\MICROSOFT VISUAL STUDIO 14.0\VC\INCLUDE\TUPLE
G:\PROGRAM FILES\MICROSOFT VISUAL STUDIO 14.0\VC\INCLUDE\STACK
G:\PROGRAM FILES\MICROSOFT VISUAL STUDIO 14.0\VC\INCLUDE\DEQUE
G:\PROGRAM FILES\MICROSOFT VISUAL STUDIO 14.0\VC\INCLUDE\CHRONO
G:\PROGRAM FILES\MICROSOFT VISUAL STUDIO 14.0\VC\INCLUDE\RATIO
C:\PROGRAM FILES\WINDOWS KITS\10\INCLUDE\10.0.10240.0\UCRT\TIME.H
G:\PROGRAM FILES\MICROSOFT VISUAL STUDIO 14.0\VC\INCLUDE\THR\XTIMEC.H
G:\PROGRAM FILES\MICROSOFT VISUAL STUDIO 14.0\VC\INCLUDE\THR\XTHRCOMMON.H
G:\PROGRAM FILES\MICROSOFT VISUAL STUDIO 14.0\VC\INCLUDE\THREAD
G:\PROGRAM FILES\MICROSOFT VISUAL STUDIO 14.0\VC\INCLUDE\FUNCTIONAL
G:\PROGRAM FILES\MICROSOFT VISUAL STUDIO 14.0\VC\INCLUDE\XFUNCTIONAL
G:\PROGRAM FILES\MICROSOFT VISUAL STUDIO 14.0\VC\INCLUDE\MEMORY
G:\PROGRAM FILES\MICROSOFT VISUAL STUDIO 14.0\VC\INCLUDE\THR\XTHREAD
G:\PROGRAM FILES\MICROSOFT VISUAL STUDIO 14.0\VC\INCLUDE\THR\XTIME
G:\PROGRAM FILES\MICROSOFT VISUAL STUDIO 14.0\VC\INCLUDE\THR\XTHREADS.H
G:\PROGRAM FILES\MICROSOFT VISUAL STUDIO 14.0\VC\INCLUDE\ATOMIC
G:\PROGRAM FILES\MICROSOFT VISUAL STUDIO 14.0\VC\INCLUDE\XATOMIC.H
G:\PROGRAM FILES\MICROSOFT VISUAL STUDIO 14.0\VC\INCLUDE\XXATOMIC
G:\PROGRAM FILES\MICROSOFT VISUAL STUDIO 14.0\VC\INCLUDE\ALLEGRO5\ALLEGRO.H
G:\PROGRAM FILES\MICROSOFT VISUAL STUDIO 14.0\VC\INCLUDE\ALLEGRO5\BASE.H
G:\PROGRAM FILES\MICROSOFT VISUAL STUDIO 14.0\VC\INCLUDE\STDARG.H
G:\PROGRAM FILES\MICROSOFT VISUAL STUDIO 14.0\VC\INCLUDE\ALLEGRO5\INTERNAL\ALCONFIG.H
G:\PROGRAM FILES\MICROSOFT VISUAL STUDIO 14.0\VC\INCLUDE\ALLEGRO5\PLATFORM\ALPLATF.H
G:\PROGRAM FILES\MICROSOFT VISUAL STUDIO 14.0\VC\INCLUDE\ALLEGRO5\PLATFORM\ALMSVC.H
C:\PROGRAM FILES\WINDOWS KITS\10\INCLUDE\10.0.10240.0\UCRT\IO.H
C:\PROGRAM FILES\WINDOWS KITS\10\INCLUDE\10.0.10240.0\UCRT\CORECRT_IO.H
C:\PROGRAM FILES\WINDOWS KITS\10\INCLUDE\10.0.10240.0\UCRT\FCNTL.H
C:\PROGRAM FILES\WINDOWS KITS\10\INCLUDE\10.0.10240.0\UCRT\DIRECT.H
G:\PROGRAM FILES\MICROSOFT VISUAL STUDIO 14.0\VC\INCLUDE\ALLEGRO5\PLATFORM\ASTDINT.H
G:\PROGRAM FILES\MICROSOFT VISUAL STUDIO 14.0\VC\INCLUDE\ALLEGRO5\PLATFORM\ASTDBOOL.H
G:\PROGRAM FILES\MICROSOFT VISUAL STUDIO 14.0\VC\INCLUDE\ALLEGRO5\ALTIME.H
G:\PROGRAM FILES\MICROSOFT VISUAL STUDIO 14.0\VC\INCLUDE\ALLEGRO5\BITMAP.H
G:\PROGRAM FILES\MICROSOFT VISUAL STUDIO 14.0\VC\INCLUDE\ALLEGRO5\COLOR.H
G:\PROGRAM FILES\MICROSOFT VISUAL STUDIO 14.0\VC\INCLUDE\ALLEGRO5\BITMAP_DRAW.H
G:\PROGRAM FILES\MICROSOFT VISUAL STUDIO 14.0\VC\INCLUDE\ALLEGRO5\BITMAP_IO.H
G:\PROGRAM FILES\MICROSOFT VISUAL STUDIO 14.0\VC\INCLUDE\ALLEGRO5\FILE.H
G:\PROGRAM FILES\MICROSOFT VISUAL STUDIO 14.0\VC\INCLUDE\ALLEGRO5\PATH.H
G:\PROGRAM FILES\MICROSOFT VISUAL STUDIO 14.0\VC\INCLUDE\ALLEGRO5\UTF8.H
G:\PROGRAM FILES\MICROSOFT VISUAL STUDIO 14.0\VC\INCLUDE\ALLEGRO5\BITMAP_LOCK.H
G:\PROGRAM FILES\MICROSOFT VISUAL STUDIO 14.0\VC\INCLUDE\ALLEGRO5\BLENDER.H
G:\PROGRAM FILES\MICROSOFT VISUAL STUDIO 14.0\VC\INCLUDE\ALLEGRO5\CONFIG.H
G:\PROGRAM FILES\MICROSOFT VISUAL STUDIO 14.0\VC\INCLUDE\ALLEGRO5\DEBUG.H
C:\PROGRAM FILES\WINDOWS KITS\10\INCLUDE\10.0.10240.0\UCRT\ASSERT.H
G:\PROGRAM FILES\MICROSOFT VISUAL STUDIO 14.0\VC\INCLUDE\ALLEGRO5\DISPLAY.H
G:\PROGRAM FILES\MICROSOFT VISUAL STUDIO 14.0\VC\INCLUDE\ALLEGRO5\EVENTS.H
G:\PROGRAM FILES\MICROSOFT VISUAL STUDIO 14.0\VC\INCLUDE\ALLEGRO5\DRAWING.H
G:\PROGRAM FILES\MICROSOFT VISUAL STUDIO 14.0\VC\INCLUDE\ALLEGRO5\ERROR.H
G:\PROGRAM FILES\MICROSOFT VISUAL STUDIO 14.0\VC\INCLUDE\ALLEGRO5\FIXED.H
G:\PROGRAM FILES\MICROSOFT VISUAL STUDIO 14.0\VC\INCLUDE\ALLEGRO5\FMATHS.H
G:\PROGRAM FILES\MICROSOFT VISUAL STUDIO 14.0\VC\INCLUDE\ALLEGRO5\INLINE\FMATHS.INL
G:\PROGRAM FILES\MICROSOFT VISUAL STUDIO 14.0\VC\INCLUDE\ALLEGRO5\FSHOOK.H
G:\PROGRAM FILES\MICROSOFT VISUAL STUDIO 14.0\VC\INCLUDE\ALLEGRO5\FULLSCREEN_MODE.H
G:\PROGRAM FILES\MICROSOFT VISUAL STUDIO 14.0\VC\INCLUDE\ALLEGRO5\JOYSTICK.H
G:\PROGRAM FILES\MICROSOFT VISUAL STUDIO 14.0\VC\INCLUDE\ALLEGRO5\KEYBOARD.H
G:\PROGRAM FILES\MICROSOFT VISUAL STUDIO 14.0\VC\INCLUDE\ALLEGRO5\KEYCODES.H
G:\PROGRAM FILES\MICROSOFT VISUAL STUDIO 14.0\VC\INCLUDE\ALLEGRO5\MEMORY.H
G:\PROGRAM FILES\MICROSOFT VISUAL STUDIO 14.0\VC\INCLUDE\ALLEGRO5\MONITOR.H
G:\PROGRAM FILES\MICROSOFT VISUAL STUDIO 14.0\VC\INCLUDE\ALLEGRO5\MOUSE.H
G:\PROGRAM FILES\MICROSOFT VISUAL STUDIO 14.0\VC\INCLUDE\ALLEGRO5\MOUSE_CURSOR.H
G:\PROGRAM FILES\MICROSOFT VISUAL STUDIO 14.0\VC\INCLUDE\ALLEGRO5\SYSTEM.H
G:\PROGRAM FILES\MICROSOFT VISUAL STUDIO 14.0\VC\INCLUDE\ALLEGRO5\THREADS.H
G:\PROGRAM FILES\MICROSOFT VISUAL STUDIO 14.0\VC\INCLUDE\ALLEGRO5\TIMER.H
G:\PROGRAM FILES\MICROSOFT VISUAL STUDIO 14.0\VC\INCLUDE\ALLEGRO5\TLS.H
G:\PROGRAM FILES\MICROSOFT VISUAL STUDIO 14.0\VC\INCLUDE\ALLEGRO5\TRANSFORMATIONS.H
G:\PROGRAM FILES\MICROSOFT VISUAL STUDIO 14.0\VC\INCLUDE\ALLEGRO5\ALCOMPAT.H
G:\PROGRAM FILES\MICROSOFT VISUAL STUDIO 14.0\VC\INCLUDE\ALLEGRO5\PLATFORM\ALWIN.H
C:\PROGRAM FILES\WINDOWS KITS\8.1\INCLUDE\UM\WINDOWS.H
C:\PROGRAM FILES\WINDOWS KITS\8.1\INCLUDE\SHARED\WINAPIFAMILY.H
C:\PROGRAM FILES\WINDOWS KITS\8.1\INCLUDE\SHARED\SDKDDKVER.H
G:\PROGRAM FILES\MICROSOFT VISUAL STUDIO 14.0\VC\INCLUDE\EXCPT.H
C:\PROGRAM FILES\WINDOWS KITS\8.1\INCLUDE\SHARED\WINDEF.H
C:\PROGRAM FILES\WINDOWS KITS\8.1\INCLUDE\SHARED\MINWINDEF.H
C:\PROGRAM FILES\WINDOWS KITS\8.1\INCLUDE\SHARED\SPECSTRINGS.H
C:\PROGRAM FILES\WINDOWS KITS\8.1\INCLUDE\SHARED\SPECSTRINGS_STRICT.H
C:\PROGRAM FILES\WINDOWS KITS\8.1\INCLUDE\SHARED\SPECSTRINGS_UNDEF.H
C:\PROGRAM FILES\WINDOWS KITS\8.1\INCLUDE\SHARED\DRIVERSPECS.H
C:\PROGRAM FILES\WINDOWS KITS\8.1\INCLUDE\SHARED\SDV_DRIVERSPECS.H
C:\PROGRAM FILES\WINDOWS KITS\8.1\INCLUDE\UM\WINNT.H
C:\PROGRAM FILES\WINDOWS KITS\8.1\INCLUDE\SHARED\KERNELSPECS.H
C:\PROGRAM FILES\WINDOWS KITS\8.1\INCLUDE\SHARED\BASETSD.H
C:\PROGRAM FILES\WINDOWS KITS\8.1\INCLUDE\SHARED\GUIDDEF.H
C:\PROGRAM FILES\WINDOWS KITS\8.1\INCLUDE\SHARED\PSHPACK4.H
C:\PROGRAM FILES\WINDOWS KITS\8.1\INCLUDE\SHARED\POPPACK.H
C:\PROGRAM FILES\WINDOWS KITS\8.1\INCLUDE\SHARED\PSHPACK2.H
C:\PROGRAM FILES\WINDOWS KITS\8.1\INCLUDE\SHARED\PSHPACK8.H
C:\PROGRAM FILES\WINDOWS KITS\8.1\INCLUDE\SHARED\APISET.H
C:\PROGRAM FILES\WINDOWS KITS\8.1\INCLUDE\SHARED\KTMTYPES.H
C:\PROGRAM FILES\WINDOWS KITS\8.1\INCLUDE\UM\WINBASE.H
C:\PROGRAM FILES\WINDOWS KITS\8.1\INCLUDE\SHARED\APISETCCONV.H
C:\PROGRAM FILES\WINDOWS KITS\8.1\INCLUDE\UM\MINWINBASE.H
C:\PROGRAM FILES\WINDOWS KITS\8.1\INCLUDE\UM\PROCESSENV.H
C:\PROGRAM FILES\WINDOWS KITS\8.1\INCLUDE\UM\FILEAPI.H
C:\PROGRAM FILES\WINDOWS KITS\8.1\INCLUDE\UM\DEBUGAPI.H
C:\PROGRAM FILES\WINDOWS KITS\8.1\INCLUDE\UM\UTILAPISET.H
C:\PROGRAM FILES\WINDOWS KITS\8.1\INCLUDE\UM\HANDLEAPI.H
C:\PROGRAM FILES\WINDOWS KITS\8.1\INCLUDE\UM\ERRHANDLINGAPI.H
C:\PROGRAM FILES\WINDOWS KITS\8.1\INCLUDE\UM\FIBERSAPI.H
C:\PROGRAM FILES\WINDOWS KITS\8.1\INCLUDE\UM\NAMEDPIPEAPI.H
C:\PROGRAM FILES\WINDOWS KITS\8.1\INCLUDE\UM\PROFILEAPI.H
C:\PROGRAM FILES\WINDOWS KITS\8.1\INCLUDE\UM\HEAPAPI.H
C:\PROGRAM FILES\WINDOWS KITS\8.1\INCLUDE\UM\IOAPISET.H
C:\PROGRAM FILES\WINDOWS KITS\8.1\INCLUDE\UM\SYNCHAPI.H
C:\PROGRAM FILES\WINDOWS KITS\8.1\INCLUDE\UM\INTERLOCKEDAPI.H
C:\PROGRAM FILES\WINDOWS KITS\8.1\INCLUDE\UM\PROCESSTHREADSAPI.H
C:\PROGRAM FILES\WINDOWS KITS\8.1\INCLUDE\UM\SYSINFOAPI.H
C:\PROGRAM FILES\WINDOWS KITS\8.1\INCLUDE\UM\MEMORYAPI.H
C:\PROGRAM FILES\WINDOWS KITS\8.1\INCLUDE\UM\THREADPOOLLEGACYAPISET.H
C:\PROGRAM FILES\WINDOWS KITS\8.1\INCLUDE\UM\THREADPOOLAPISET.H
C:\PROGRAM FILES\WINDOWS KITS\8.1\INCLUDE\UM\BEMAPISET.H
C:\PROGRAM FILES\WINDOWS KITS\8.1\INCLUDE\UM\JOBAPI.H
C:\PROGRAM FILES\WINDOWS KITS\8.1\INCLUDE\UM\WOW64APISET.H
C:\PROGRAM FILES\WINDOWS KITS\8.1\INCLUDE\UM\LIBLOADERAPI.H
C:\PROGRAM FILES\WINDOWS KITS\8.1\INCLUDE\UM\SECURITYBASEAPI.H
C:\PROGRAM FILES\WINDOWS KITS\8.1\INCLUDE\UM\NAMESPACEAPI.H
C:\PROGRAM FILES\WINDOWS KITS\8.1\INCLUDE\UM\SYSTEMTOPOLOGYAPI.H
C:\PROGRAM FILES\WINDOWS KITS\8.1\INCLUDE\UM\PROCESSTOPOLOGYAPI.H
C:\PROGRAM FILES\WINDOWS KITS\8.1\INCLUDE\UM\SECURITYAPPCONTAINER.H
C:\PROGRAM FILES\WINDOWS KITS\8.1\INCLUDE\UM\REALTIMEAPISET.H
C:\PROGRAM FILES\WINDOWS KITS\8.1\INCLUDE\SHARED\WINERROR.H
C:\PROGRAM FILES\WINDOWS KITS\8.1\INCLUDE\UM\TIMEZONEAPI.H
C:\PROGRAM FILES\WINDOWS KITS\8.1\INCLUDE\UM\WINGDI.H
C:\PROGRAM FILES\WINDOWS KITS\8.1\INCLUDE\SHARED\PSHPACK1.H
C:\PROGRAM FILES\WINDOWS KITS\8.1\INCLUDE\UM\WINUSER.H
C:\PROGRAM FILES\WINDOWS KITS\8.1\INCLUDE\SHARED\TVOUT.H
C:\PROGRAM FILES\WINDOWS KITS\8.1\INCLUDE\UM\WINNLS.H
C:\PROGRAM FILES\WINDOWS KITS\8.1\INCLUDE\UM\DATETIMEAPI.H
C:\PROGRAM FILES\WINDOWS KITS\8.1\INCLUDE\UM\STRINGAPISET.H
C:\PROGRAM FILES\WINDOWS KITS\8.1\INCLUDE\UM\WINCON.H
C:\PROGRAM FILES\WINDOWS KITS\8.1\INCLUDE\UM\CONSOLEAPI.H
C:\PROGRAM FILES\WINDOWS KITS\8.1\INCLUDE\UM\WINVER.H
C:\PROGRAM FILES\WINDOWS KITS\8.1\INCLUDE\UM\VERRSRC.H
C:\PROGRAM FILES\WINDOWS KITS\8.1\INCLUDE\UM\WINREG.H
C:\PROGRAM FILES\WINDOWS KITS\8.1\INCLUDE\UM\REASON.H
C:\PROGRAM FILES\WINDOWS KITS\8.1\INCLUDE\UM\WINNETWK.H
C:\PROGRAM FILES\WINDOWS KITS\8.1\INCLUDE\SHARED\WNNC.H
C:\PROGRAM FILES\WINDOWS KITS\8.1\INCLUDE\SHARED\CDERR.H
C:\PROGRAM FILES\WINDOWS KITS\8.1\INCLUDE\UM\DDE.H
C:\PROGRAM FILES\WINDOWS KITS\8.1\INCLUDE\UM\DDEML.H
C:\PROGRAM FILES\WINDOWS KITS\8.1\INCLUDE\UM\DLGS.H
C:\PROGRAM FILES\WINDOWS KITS\8.1\INCLUDE\UM\LZEXPAND.H
C:\PROGRAM FILES\WINDOWS KITS\8.1\INCLUDE\UM\MMSYSTEM.H
C:\PROGRAM FILES\WINDOWS KITS\8.1\INCLUDE\UM\MMSYSCOM.H
C:\PROGRAM FILES\WINDOWS KITS\8.1\INCLUDE\UM\MCIAPI.H
C:\PROGRAM FILES\WINDOWS KITS\8.1\INCLUDE\UM\MMISCAPI.H
C:\PROGRAM FILES\WINDOWS KITS\8.1\INCLUDE\UM\MMISCAPI2.H
C:\PROGRAM FILES\WINDOWS KITS\8.1\INCLUDE\UM\PLAYSOUNDAPI.H
C:\PROGRAM FILES\WINDOWS KITS\8.1\INCLUDE\UM\MMEAPI.H
C:\PROGRAM FILES\WINDOWS KITS\8.1\INCLUDE\UM\TIMEAPI.H
C:\PROGRAM FILES\WINDOWS KITS\8.1\INCLUDE\UM\JOYSTICKAPI.H
C:\PROGRAM FILES\WINDOWS KITS\8.1\INCLUDE\UM\NB30.H
C:\PROGRAM FILES\WINDOWS KITS\8.1\INCLUDE\SHARED\RPC.H
C:\PROGRAM FILES\WINDOWS KITS\8.1\INCLUDE\SHARED\RPCDCE.H
C:\PROGRAM FILES\WINDOWS KITS\8.1\INCLUDE\SHARED\RPCDCEP.H
C:\PROGRAM FILES\WINDOWS KITS\8.1\INCLUDE\UM\RPCNSI.H
C:\PROGRAM FILES\WINDOWS KITS\8.1\INCLUDE\SHARED\RPCNTERR.H
C:\PROGRAM FILES\WINDOWS KITS\8.1\INCLUDE\SHARED\RPCASYNC.H
C:\PROGRAM FILES\WINDOWS KITS\8.1\INCLUDE\UM\SHELLAPI.H
C:\PROGRAM FILES\WINDOWS KITS\8.1\INCLUDE\UM\WINPERF.H
C:\PROGRAM FILES\WINDOWS KITS\8.1\INCLUDE\UM\WINSOCK.H
C:\PROGRAM FILES\WINDOWS KITS\8.1\INCLUDE\SHARED\INADDR.H
C:\PROGRAM FILES\WINDOWS KITS\8.1\INCLUDE\UM\WINCRYPT.H
C:\PROGRAM FILES\WINDOWS KITS\8.1\INCLUDE\SHARED\BCRYPT.H
C:\PROGRAM FILES\WINDOWS KITS\8.1\INCLUDE\UM\NCRYPT.H
C:\PROGRAM FILES\WINDOWS KITS\8.1\INCLUDE\UM\DPAPI.H
C:\PROGRAM FILES\WINDOWS KITS\8.1\INCLUDE\UM\WINEFS.H
C:\PROGRAM FILES\WINDOWS KITS\8.1\INCLUDE\UM\WINSCARD.H
C:\PROGRAM FILES\WINDOWS KITS\8.1\INCLUDE\SHARED\WTYPES.H
C:\PROGRAM FILES\WINDOWS KITS\8.1\INCLUDE\SHARED\RPCNDR.H
C:\PROGRAM FILES\WINDOWS KITS\8.1\INCLUDE\UM\RPCNSIP.H
C:\PROGRAM FILES\WINDOWS KITS\8.1\INCLUDE\SHARED\RPCSAL.H
C:\PROGRAM FILES\WINDOWS KITS\8.1\INCLUDE\SHARED\WTYPESBASE.H
C:\PROGRAM FILES\WINDOWS KITS\8.1\INCLUDE\UM\WINIOCTL.H
C:\PROGRAM FILES\WINDOWS KITS\8.1\INCLUDE\SHARED\WINSMCRD.H
C:\PROGRAM FILES\WINDOWS KITS\8.1\INCLUDE\UM\WINSPOOL.H
C:\PROGRAM FILES\WINDOWS KITS\8.1\INCLUDE\UM\PRSHT.H
C:\PROGRAM FILES\WINDOWS KITS\8.1\INCLUDE\UM\OLE2.H
C:\PROGRAM FILES\WINDOWS KITS\8.1\INCLUDE\UM\OBJBASE.H
C:\PROGRAM FILES\WINDOWS KITS\8.1\INCLUDE\UM\COMBASEAPI.H
C:\PROGRAM FILES\WINDOWS KITS\8.1\INCLUDE\UM\UNKNWNBASE.H
C:\PROGRAM FILES\WINDOWS KITS\8.1\INCLUDE\UM\OBJIDLBASE.H
C:\PROGRAM FILES\WINDOWS KITS\8.1\INCLUDE\UM\CGUID.H
C:\PROGRAM FILES\WINDOWS KITS\8.1\INCLUDE\UM\OBJIDL.H
C:\PROGRAM FILES\WINDOWS KITS\8.1\INCLUDE\UM\UNKNWN.H
C:\PROGRAM FILES\WINDOWS KITS\8.1\INCLUDE\UM\URLMON.H
C:\PROGRAM FILES\WINDOWS KITS\8.1\INCLUDE\UM\OLEIDL.H
C:\PROGRAM FILES\WINDOWS KITS\8.1\INCLUDE\UM\SERVPROV.H
C:\PROGRAM FILES\WINDOWS KITS\8.1\INCLUDE\UM\MSXML.H
C:\PROGRAM FILES\WINDOWS KITS\8.1\INCLUDE\UM\OAIDL.H
C:\PROGRAM FILES\WINDOWS KITS\8.1\INCLUDE\UM\PROPIDL.H
C:\PROGRAM FILES\WINDOWS KITS\8.1\INCLUDE\UM\OLEAUTO.H
C:\PROGRAM FILES\WINDOWS KITS\8.1\INCLUDE\UM\COMMDLG.H
C:\PROGRAM FILES\WINDOWS KITS\8.1\INCLUDE\SHARED\STRALIGN.H
C:\PROGRAM FILES\WINDOWS KITS\8.1\INCLUDE\UM\WINSVC.H
C:\PROGRAM FILES\WINDOWS KITS\8.1\INCLUDE\UM\MCX.H
C:\PROGRAM FILES\WINDOWS KITS\8.1\INCLUDE\UM\IMM.H
C:\PROGRAM FILES\WINDOWS KITS\8.1\INCLUDE\UM\IME_CMODES.H
G:\PROGRAM FILES\MICROSOFT VISUAL STUDIO 14.0\VC\INCLUDE\ALLEGRO5\ALLEGRO_PRIMITIVES.H
G:\VIRTUALASSEMBLY\C++\VIRTUALMACHINE\VTM\COMMAND.H
G:\VIRTUALASSEMBLY\C++\VIRTUALMACHINE\VTM\PARSING.H
